{
  "count": 103,
  "next": "https://lldev.thespacedevs.com/2.2.0/launcher/?limit=10&offset=10",
  "previous": null,
  "results": [
    {
      "id": 88,
      "url": "https://lldev.thespacedevs.com/2.2.0/launcher/88/",
      "flight_proven": true,
      "serial_number": "16",
      "status": "retired",
      "details": "Electron first stage used for Rocket Lab's 'Return to Sender' test recovery.",
      "launcher_config": {
        "id": 26,
        "url": "https://lldev.thespacedevs.com/2.2.0/config/launcher/26/",
        "name": "Electron",
        "family": "Electron",
        "full_name": "Electron",
        "variant": ""
      },
      "image_url": "https://spacelaunchnow-prod-east.nyc3.digitaloceanspaces.com/media/launcher_core_images/88_image_20201120013902.jpg",
      "flights": 1,
      "last_launch_date": "2020-11-20T02:20:00Z",
      "first_launch_date": "2020-11-20T02:20:00Z"
    },
    {
      "id": 97,
      "url": "https://lldev.thespacedevs.com/2.2.0/launcher/97/",
      "flight_proven": true,
      "serial_number": "20",
      "status": "retired",
      "details": "Booster used for Electron's 20th flight (Running Out Of Toes). Successfully splashed down offshore.",
      "launcher_config": {
        "id": 26,
        "url": "https://lldev.thespacedevs.com/2.2.0/config/launcher/26/",
        "name": "Electron",
        "family": "Electron",
        "full_name": "Electron",
        "variant": ""
      },
      "image_url": "https://spacelaunchnow-prod-east.nyc3.digitaloceanspaces.com/media/launcher_core_images/97_image_20210511100944.jpg",
      "flights": 1,
      "last_launch_date": "2021-05-15T11:11:00Z",
      "first_launch_date": "2021-05-15T11:11:00Z"
    },
    {
      "id": 104,
      "url": "https://lldev.thespacedevs.com/2.2.0/launcher/104/",
      "flight_proven": false,
      "serial_number": "22",
      "status": "active",
      "details": "Booster used for Electron's 22nd flight (Love At First Insight)",
      "launcher_config": {
        "id": 26,
        "url": "https://lldev.thespacedevs.com/2.2.0/config/launcher/26/",
        "name": "Electron",
        "family": "Electron",
        "full_name": "Electron",
        "variant": ""
      },
      "image_url": "https://spacelaunchnow-prod-east.nyc3.digitaloceanspaces.com/media/launcher_core_images/none_image_20211109093154.jpg",
      "flights": 1,
      "last_launch_date": "2021-11-18T01:38:13Z",
      "first_launch_date": "2021-11-18T01:38:13Z"
    },
    {
      "id": 8,
      "url": "https://lldev.thespacedevs.com/2.2.0/launcher/8/",
      "flight_proven": false,
      "serial_number": "B0003",
      "status": "expended",
      "details": "Stage Expended",
      "launcher_config": {
        "id": 169,
        "url": "https://lldev.thespacedevs.com/2.2.0/config/launcher/169/",
        "name": "Falcon 9",
        "family": "Falcon",
        "full_name": "Falcon 9 v1.0",
        "variant": "v1.0"
      },
      "image_url": "https://spacelaunchnow-prod-east.nyc3.digitaloceanspaces.com/media/launcher_core_images/8_image_20191115082425.jpg",
      "flights": 1,
      "last_launch_date": "2010-06-04T18:45:00Z",
      "first_launch_date": "2010-06-04T18:45:00Z"
    },
    {
      "id": 9,
      "url": "https://lldev.thespacedevs.com/2.2.0/launcher/9/",
      "flight_proven": false,
      "serial_number": "B0004",
      "status": "lost",
      "details": "First flight of Dragon",
      "launcher_config": {
        "id": 169,
        "url": "https://lldev.thespacedevs.com/2.2.0/config/launcher/169/",
        "name": "Falcon 9",
        "family": "Falcon",
        "full_name": "Falcon 9 v1.0",
        "variant": "v1.0"
      },
      "image_url": "https://spacelaunchnow-prod-east.nyc3.digitaloceanspaces.com/media/launcher_core_images/9_image_20191115082500.jpg",
      "flights": 1,
      "last_launch_date": "2010-12-08T15:43:00Z",
      "first_launch_date": "2010-12-08T15:43:00Z"
    },
    {
      "id": 10,
      "url": "https://lldev.thespacedevs.com/2.2.0/launcher/10/",
      "flight_proven": false,
      "serial_number": "B0005",
      "status": "lost",
      "details": "",
      "launcher_config": {
        "id": 169,
        "url": "https://lldev.thespacedevs.com/2.2.0/config/launcher/169/",
        "name": "Falcon 9",
        "family": "Falcon",
        "full_name": "Falcon 9 v1.0",
        "variant": "v1.0"
      },
      "image_url": "https://spacelaunchnow-prod-east.nyc3.digitaloceanspaces.com/media/launcher_core_images/10_image_20191115082622.jpeg",
      "flights": 1,
      "last_launch_date": "2012-05-22T07:44:38Z",
      "first_launch_date": "2012-05-22T07:44:38Z"
    },
    {
      "id": 11,
      "url": "https://lldev.thespacedevs.com/2.2.0/launcher/11/",
      "flight_proven": false,
      "serial_number": "B0006",
      "status": "lost",
      "details": "Suffered engine out at T+1:19 but primary mission successful",
      "launcher_config": {
        "id": 169,
        "url": "https://lldev.thespacedevs.com/2.2.0/config/launcher/169/",
        "name": "Falcon 9",
        "family": "Falcon",
        "full_name": "Falcon 9 v1.0",
        "variant": "v1.0"
      },
      "image_url": "https://spacelaunchnow-prod-east.nyc3.digitaloceanspaces.com/media/launcher_core_images/11_image_20191115082657.jpeg",
      "flights": 1,
      "last_launch_date": "2012-10-08T00:35:07Z",
      "first_launch_date": "2012-10-08T00:35:07Z"
    },
    {
      "id": 12,
      "url": "https://lldev.thespacedevs.com/2.2.0/launcher/12/",
      "flight_proven": false,
      "serial_number": "B0007",
      "status": "lost",
      "details": "",
      "launcher_config": {
        "id": 169,
        "url": "https://lldev.thespacedevs.com/2.2.0/config/launcher/169/",
        "name": "Falcon 9",
        "family": "Falcon",
        "full_name": "Falcon 9 v1.0",
        "variant": "v1.0"
      },
      "image_url": "https://spacelaunchnow-prod-east.nyc3.digitaloceanspaces.com/media/launcher_core_images/12_image_20191115082745.jpeg",
      "flights": 1,
      "last_launch_date": "2013-03-01T15:10:13Z",
      "first_launch_date": "2013-03-01T15:10:13Z"
    },
    {
      "id": 13,
      "url": "https://lldev.thespacedevs.com/2.2.0/launcher/13/",
      "flight_proven": false,
      "serial_number": "B1003",
      "status": "lost",
      "details": "First flight of Falcon 9 v1.1 upgrade, first SpaceX flight from Vandenberg",
      "launcher_config": {
        "id": 14,
        "url": "https://lldev.thespacedevs.com/2.2.0/config/launcher/14/",
        "name": "Falcon 9",
        "family": "Falcon",
        "full_name": "Falcon 9 v1.1",
        "variant": "v1.1"
      },
      "image_url": "https://spacelaunchnow-prod-east.nyc3.digitaloceanspaces.com/media/launcher_core_images/13_image_20191115082823.jpg",
      "flights": 1,
      "last_launch_date": "2013-09-29T16:00:00Z",
      "first_launch_date": "2013-09-29T16:00:00Z"
    },
    {
      "id": 14,
      "url": "https://lldev.thespacedevs.com/2.2.0/launcher/14/",
      "flight_proven": false,
      "serial_number": "B1004",
      "status": "lost",
      "details": "",
      "launcher_config": {
        "id": 14,
        "url": "https://lldev.thespacedevs.com/2.2.0/config/launcher/14/",
        "name": "Falcon 9",
        "family": "Falcon",
        "full_name": "Falcon 9 v1.1",
        "variant": "v1.1"
      },
      "image_url": "https://spacelaunchnow-prod-east.nyc3.digitaloceanspaces.com/media/launcher_core_images/14_image_20191115082913.jpeg",
      "flights": 1,
      "last_launch_date": "2013-12-03T21:41:00Z",
      "first_launch_date": "2013-12-03T21:41:00Z"
    }
  ]
}
